/* XPM */
/* -copyright-
#-# 
#-# Copyright (C) 1999-2001  Robin Hogan, 2021-2024 Willem Vermin
#-# 
#-# This program is free software; you can redistribute it and/or modify
#-# it under the terms of the GNU General Public License as published by
#-# the Free Software Foundation; either version 2 of the License, or
#-# (at your option) any later version.
#-# 
#-# This program is distributed in the hope that it will be useful,
#-# but WITHOUT ANY WARRANTY; without even the implied warranty of
#-# MERCHANTABILITY or FITNESS FOR A PARTICULAR PURPOSE.  See the
#-# GNU General Public License for more details.
#-# 
#-# You should have received a copy of the GNU General Public License
#-# along with this program; if not, write to the Free Software
#-# Foundation, Inc., 59 Temple Place, Suite 330, Boston, MA  02111-1307  USA
#-# 
*/
static char * splat_xpm[] = {
"120 76 11 1",
" 	c None",
".	c #5D3C5D",
"+	c #FF0000",
"@	c #BF3F5F",
"#	c #DFBE5D",
"$	c #000000",
"%	c #FFFFFF",
"&	c #3F5FBF",
"*	c #FFFF9E",
"=	c #DFDFBE",
"-	c #9F3F5F",
"       ..   ...               .     .                +       +@        ++    +                              ++          ",
"       ..  .#.    ..         .... ...           +    +      ++@+   +  +            +++@      ++             ++       ++ ",
" ...  .##...#.  ...      ... .###.##. ....       +  ++      ++@+  +  +             +++@     ++++            ++      ++++",
"  .#. .###.##. ..#. . .  .###.###.##..##.....     +  ++     ++@+    +      +      ++++@    +++++           +++     +++++",
"  .###.###.##..###....  ...#############..##.      + ++ ..  .+@     +    ++ ++ + .++.+     +++++ ++ +      ++      +++  ",
"....##############.##.  .##################.      ++$$$$ .. ++@    ++   ++++++ ++.++++   +++++++  +++      +      ++    ",
" .##################.   .#################.        $%+%%$   $$$$   +   + +++++  + ++$+  + ++++++   ++      +      +     ",
" .#################.   . .################....  .  $%+%%$+ $%%%%$     +    ++++   ++++ + ++++++     +      +     ++     ",
"  .################....  .########$$$$#######.. .  $++%%%$$++%%%$     + + + ++    +++  + ++++                    +      ",
"  .########$$$$#######. ..$$$$###$%%%%$#####.      $%%+%%@@%%+%%%$+  +  ++   ++    ++   ++++  + ++   +          +       ",
"...$$$$###$%%%%$#####.  .$%+%%$#$++%%%$####..    + @%%+%$@$%%%+%%$+ +   +++   +  + +   ++++ +                           ",
".#$%&%%$#$%&%%%$####..  .$%+%%$#$%%+%%%$$$$.     +*@+%+%$@$%%+%+%$ +++   +++          +++  +                            ",
"..$%&%%$#$%%&%%%$$$$.   .$++%%%$$%%%+%%$%=.#.     +@@$$$+@+$+%%%$+ +++                +++    +                          ",
"..$&&%%%$$%%%&%%$%=.#.   $%%+%%$$%%+%+%$=%.#.++   +++@+++@+$%%%%+++++. @              +     +.                          ",
"  $%%&%%$$%%&%&%$=%.#.   $%%+%$=%$+%%%$++.+++.+-   +@@+++@++$$$++@++.           +     +    ++++                  ++     ",
"  $%%&%$=%$&%%%$$..#...   $%+%$%=$%%%%++ ++..      ++@+++++++++@+++.+          ++    +   +++++++                    ++++",
"   $%&%$%=$%%%%$=.#.    .  $$$%=%=$$$++ -- .=.      @@@++++++++@+@@@@++  ++   @+++   +   +++@+++                     +++",
" .  $$$%=%=$$$$ .#. ..   ..****... = ++--.. . . ++++++++++++++@++@+++++ +++++  +++      ++++++++                      ++",
". .... =... = .=... .=. =.+++**.... .+--*. = =. @@@@@+++@+@++@++@++++++         + @     +     +                         ",
".=.***. .... ....... . . +--++++ = .+--**.= = .   +++++++++++++@++......    ++++                                        ",
". .****.= = ..****. = =.=.**---++.+++-****.= =. +@++  +++++++++@+++++++ +  +  ++++                 +  +                 ",
".=.*****....*.****.= = ...****-+++++--**++++++    @  @@@+++++++++++++    ++          + +++++     +++           +        ",
"...****.**.**.*****.= =.    .*+-+++-+++++++++++     ++++++++++++++ +    +    +  + +  +   ++++   ++      +        +      ",
"  ....*.**.*.******....   +++++++++++++***-----+    ++@@+++++++++++++       + @@           +++  ++                 +    ",
"     .**.*.*.*****..    ------+++++++**++++    -   ++@+@+++++++++@@++++      @++       +    +++++                       ",
"     .**.*..*****.           -.++++++-+--+++++   ++++++@++++++++++@.   +   ++++       +    . +++    ++                  ",
"     .***...*****.        ++++*--++++++**---+++  .. ++@@+++++++++++.. *   +++++       ++ +  .+++    +            +   ++ ",
"     .***..******.       +++  --+*-++-+**. ---++    ++.@@+++++++++++.     + +++  +    +++     +     +                 + ",
"     .****.******.      ++   +-*.+-+-+***.   --+++++++.@+++@++++@++++ .   ++++     @  ++@ +   +    +              +   ++",
"      .***.*****..          +-  +-++-++*..    -  ++++.+@@++@++@+@++*+ ..  +++   +  @  @+@ ++      ++    +         +    +",
" ..  .*.**.**....*.        +  +-+*+-+-+..*.     +++@+ @++++@++@+@+@++ +.  +++   +  @  @+@ @+      ++    +         @    +",
".... .**.....*****.  ..  ..  .*-**+-.-****.  .. ++@++@++++++++@+@@+@+ @    +    +  +  @+@  ++      +           +        ",
".....**************. ....... .**..+-.-*****. ...++@ @+@+++++++ +@@+@++ @         + +   +@  +++                 +   +    ",
" ....*****.....*****.........******- -.*****....+++ +@+  +.+++ +@+++@+ @       +  ++   +@  +++                 +@   ++  ",
" .....**..     .***....  ....*****.+ - .***....  ++ +@+  +++++ ++  +@+ @       +   +  +++  +@++        +      +++   @+  ",
"  ......        .......  .....**.. +    .......      +    ++   ++   +@        +    +  +++  ++@+       ++   +  +++   +@  ",
"  ....           .....    ......   +     .....   @   +    ++   +    ++        ++   +   +   ++++       ++   +   +        ",
"                 ...      ....           ...        +     +    +     +         +++ +   +                   +   +        ",
"         ...   ..                  .     .      +        @+       +                       +    +          ++            ",
"    ..    .#.  ..                  ... ....      +  +   +@++      +    + ++      @+++            ++       ++            ",
"     ...  .#...##.  ...       .... .##.###. ...   +  +  +@++      ++  + ++++     @+++           ++++      ++            ",
" . . .#.. .##.###. .#.     .....##..##.###.###.    +    +@++     ++  +  +++++    @++++      +   +++++     +++           ",
"  ....###..##.###.###.     .##..#############...   +     @+.  .. ++ +   +++++     +.++. + ++ ++   +++      ++      + ++ ",
"  .##.##############....    .##################.   ++    @++ .. $$$$++  +++++++   ++++.++ ++++++    ++      +      +++  ",
"   .##################.      .#################.+   +   $$$$   $%%+%$   ++++++ +  +$++ +  +++++      +      +      ++   ",
".   .#################.   ....################.  +     $%%%%$ +$%%+%$  . ++++++ + ++++   ++++        ++     +      +    ",
" ....################.   ..#######$$$$########.  +     $%%%++$$%%%++$  .   ++++ +  +++    ++ + +      +                 ",
" .#######$$$$########.     .#####$%%%%$###$$$$..  +  +$%%%+%%@@%%+%%$    +  ++++   ++    ++   ++       +          +   ++",
"  .#####$%%%%$###$$$$...   ..####$%%%++$#$%%+%$.   + +$%%+%%%$@$%+%%@ +    + ++++   + +  +   +++                        ",
"  ..####$%%%&%$#$%%&%$#.    .$$$$%%%+%%$#$%%+%$.  +++ $%+%+%%$@$%+%+@*+     +  +++          +++                         ",
"   .$$$$%%%&%%$#$%%&%$..   .#.=%$%%+%%%$$%%%++$.  +++ +$%%%+$+@+$$$@@+    +    +++                                      ",
"  .#.=%$%%&%%%$$%%%&&$.. ++.#.%=$%+%+%%$$%%+%%$ @ .+++++%%%%$+@+++@+++    .+     +                                      ",
"  .#.%=$%&%&%%$$%%&%%$  -+.+++.++$%%%+$%=$%+%%$    .++@++$$$++@+++@@+    ++++    +     +             ++                 ",
" ...#..$$%%%&$%=$%&%%$     ..++ ++%%%%$=%$%+%$     +.+++@+++++++++@++   +++++++   +    ++       ++++                    ",
"    .#.=$%%%%$=%$%&%$     .=. -- ++$$$=%=%$$$  . ++@@@@+@++++++++@@@    +++@+++   +   +++@   ++ +++                     ",
"  .. .#. $$$$=%=%$$$  .  . . ..--++ = ...****..  +++++@++@++++++++++++++++++++++      +++  +++++++                      ",
" .=. ...=. = ...= .... . .= = .*--+. ....**+++.= ++++++@++@++@+@+++@@@@@ +     +     @ +                                ",
". . ....... .... .***.=. . = =.**--+. = ++++--+ ......++@+++++++++++++                  ++++                            ",
".= = .****.. = =.****. . .= =.****-+++.++---**.= +++++++@+++++++++  ++@+              ++++  +  +                 +  +   ",
". = =.****.*....*****.=.  ++++++**--+++++-****..   +++++++++++++@@@  @      +++++ +          ++         +           +++ ",
".= =.*****.**.**.****... +++++++++++-+++-+*.        + ++++++++++++++       ++++   +  + +  +    +      +        +      ++",
" ....******.*.**.*....  +-----***+++++++++++++     +++++++++++++@@++      +++           @@ +        +                 ++",
"    ..*****.*.*.**.     -    ++++**+++++++------ ++++@@+++++++++@+@++   ++++    +       ++@                            +",
"      .*****..*.**.       +++++--+-++++++.-     +   .@++++++++++@++++++ +++ .    +       ++++                     ++    ",
"      .*****...***.      +++---**++++++--*++++   * ..+++++++++++@@++ .. +++.  + ++       +++++   ++   +            +    ",
"      .******..***.     ++--- .**+-++-*+--  +++    .+++++++++++@@.++     +     +++    +  +++ +   +                 +    ",
"      .******.****.     +--   .***+-+-+.*-+   ++ . ++++@++++@+++@.++++++ +   + @++  @     ++++  ++   +              +   ",
"      ..*****.***.       -    ..*++-++-+  -+    .. +*++@+@++@++@@+.++++     ++ @+@  @  +   +++  +    +         +    ++  ",
"     .*....**.**.*.  ..      .*..+-+-+*+-+  +   .+ ++@+@+@++@++++@ +@+++    +@ @+@  @  +   +++  +    @         +    ++  ",
" ..  .*****.....**. .... ..  .****-.-+**-*.  ..  @ +@+@@+@++++++++@++@++   ++  @+@  +  +    +           +           +   ",
"... .**************........ .*****-.-+..**. ....@ ++@+@@+ +++++++@+@ @++  +++  @+   + +             +   +               ",
"....*****.....*****.... ....*****.- -******.....@ +@+++@+ +++.+  +@+ +++  +++  @+   ++  +         ++   @+               ",
" ....***.     ..**.....  ....***. - +.*****.... @ +@+  ++ +++++  +@+ ++  ++@+  +++  +   +         +@   +++      +       ",
" .......        ......   .......    + ..**.....   @+   ++   ++    +      +@++  +++  +    +        @+   +++  +   ++      ",
"  .....           ....    .....     +   ......    ++    +   ++    +   @  ++++   +   +   ++              +   +   ++      ",
"    ...                     ...           ....    +     +    +     +            +   + +++               +   +           "};
